; Engine configuration file.
; It's best edited using the editor UI and not directly,
; since the parameters that go here are not all obvious.
;
; Format:
;   [section] ; section goes between []
;   param=value ; assign values to parameters

config_version=5

_global_script_classes=[{
"base": "AstNode",
"class": &"AstExpression",
"language": &"GDScript",
"path": "res://ast/expression.gd"
}, {
"base": "AstExpression",
"class": &"AstExpressionBinary",
"language": &"GDScript",
"path": "res://ast/expression_binary.gd"
}, {
"base": "AstExpression",
"class": &"AstExpressionGroup",
"language": &"GDScript",
"path": "res://ast/expression_group.gd"
}, {
"base": "AstExpression",
"class": &"AstExpressionHole",
"language": &"GDScript",
"path": "res://ast/expression_hole.gd"
}, {
"base": "AstExpression",
"class": &"AstExpressionLiteralInteger",
"language": &"GDScript",
"path": "res://ast/expression_literal_integer.gd"
}, {
"base": "AstExpression",
"class": &"AstExpressionUnary",
"language": &"GDScript",
"path": "res://ast/expression_unary.gd"
}, {
"base": "RefCounted",
"class": &"AstNode",
"language": &"GDScript",
"path": "res://ast/node.gd"
}, {
"base": "RefCounted",
"class": &"AstOperators",
"language": &"GDScript",
"path": "res://ast/operators.gd"
}, {
"base": "RefCounted",
"class": &"TextBuilder",
"language": &"GDScript",
"path": "res://text/builder.gd"
}, {
"base": "Control",
"class": &"TextCursor",
"language": &"GDScript",
"path": "res://text/cursor/cursor.gd"
}, {
"base": "Node",
"class": &"TextCursorContext",
"language": &"GDScript",
"path": "res://text/cursor/context.gd"
}, {
"base": "Node",
"class": &"TextCursorState",
"language": &"GDScript",
"path": "res://text/cursor/state.gd"
}, {
"base": "TextGroup",
"class": &"TextExpressionBinary",
"language": &"GDScript",
"path": "res://text/groups/expression_binary.gd"
}, {
"base": "TextGroup",
"class": &"TextExpressionGroup",
"language": &"GDScript",
"path": "res://text/groups/expression_group.gd"
}, {
"base": "TextInput",
"class": &"TextExpressionHole",
"language": &"GDScript",
"path": "res://text/tiles/expression_hole.gd"
}, {
"base": "RefCounted",
"class": &"TextExpressionUtils",
"language": &"GDScript",
"path": "res://text/utils/expression_utils.gd"
}, {
"base": "Container",
"class": &"TextGroup",
"language": &"GDScript",
"path": "res://text/base/group.gd"
}, {
"base": "TextToken",
"class": &"TextInput",
"language": &"GDScript",
"path": "res://text/base/input.gd"
}, {
"base": "TextInput",
"class": &"TextIntegerLiteral",
"language": &"GDScript",
"path": "res://text/tiles/integer_literal.gd"
}, {
"base": "Control",
"class": &"TextTile",
"language": &"GDScript",
"path": "res://text/base/tile.gd"
}, {
"base": "TextTile",
"class": &"TextToken",
"language": &"GDScript",
"path": "res://text/base/token.gd"
}, {
"base": "RefCounted",
"class": &"TextTreeUtils",
"language": &"GDScript",
"path": "res://text/utils/tree_utils.gd"
}, {
"base": "RefCounted",
"class": &"UtilsTheme",
"language": &"GDScript",
"path": "res://utils/theme.gd"
}]
_global_script_class_icons={
"AstExpression": "",
"AstExpressionBinary": "",
"AstExpressionGroup": "",
"AstExpressionHole": "",
"AstExpressionLiteralInteger": "",
"AstExpressionUnary": "",
"AstNode": "",
"AstOperators": "",
"TextBuilder": "",
"TextCursor": "",
"TextCursorContext": "",
"TextCursorState": "",
"TextExpressionBinary": "",
"TextExpressionGroup": "",
"TextExpressionHole": "",
"TextExpressionUtils": "",
"TextGroup": "",
"TextInput": "",
"TextIntegerLiteral": "",
"TextTile": "",
"TextToken": "",
"TextTreeUtils": "",
"UtilsTheme": ""
}

[application]

config/name="SIDE"
run/main_scene="res://test.tscn"
config/features=PackedStringArray("4.0", "Mobile")
run/low_processor_mode=true
config/icon="res://icon.svg"

[dotnet]

project/assembly_name="SIDE"

[rendering]

renderer/rendering_method="mobile"
